steps\CustomerDetailsSteps.class
hooks\BaseTest.class
hooks\CustomerTestSuite.class
hooks\TopupTestSuite.class
steps\BaseSteps.class
steps\topup\UnsuccessfulTopUpSteps.class
steps\CustomerSmartcardsSteps.class
steps\topup\SuccessfulTopUpSteps.class
